<?xml version="1.0" encoding="UTF-8" standalone="no"?>
<!-- Created with Inkscape (http://www.inkscape.org/) -->
<svg
   xmlns:svg="http://www.w3.org/2000/svg"
   xmlns="http://www.w3.org/2000/svg"
   version="1.0"
   x="0.0000000"
   y="0.0000000"
   width="375.00000"
   height="375.00000"
   id="svg1">
  <defs
     id="defs3">
    <linearGradient
       id="linearGradient1547">
      <stop
         style="stop-color:#000000;stop-opacity:1.0000000"
         offset="0.0000000"
         id="stop1548" />
      <stop
         style="stop-color:#ffffff;stop-opacity:1.0000000"
         offset="1.0000000"
         id="stop1549" />
    </linearGradient>
  </defs>
  <path
     d="M 132.43826,141.34062 C 135.83667,142.06721 138.48510,143.57893 140.38358,145.87578 C 142.30541,148.17267 143.26635,151.00861 143.26639,154.38359 C 143.26635,159.56329 141.48510,163.57110 137.92264,166.40703 C 134.36011,169.24297 129.29761,170.66093 122.73514,170.66093 C 120.53200,170.66093 118.25856,170.43828 115.91483,169.99297 C 113.59450,169.57109 111.19216,168.92656 108.70779,168.05937 L 108.70779,161.20390 C 110.67654,162.35235 112.83278,163.21953 115.17654,163.80547 C 117.52028,164.39141 119.96950,164.68438 122.52420,164.68437 C 126.97730,164.68438 130.36402,163.80547 132.68436,162.04765 C 135.02807,160.28985 136.19995,157.73517 136.19998,154.38359 C 136.19995,151.28986 135.11011,148.87580 132.93045,147.14140 C 130.77417,145.38361 127.76246,144.50471 123.89529,144.50468 L 117.77811,144.50468 L 117.77811,138.66875 L 124.17654,138.66875 C 127.66871,138.66878 130.34058,137.97737 132.19217,136.59453 C 134.04370,135.18831 134.96948,133.17269 134.96951,130.54765 C 134.96948,127.85238 134.00854,125.78988 132.08670,124.36015 C 130.18824,122.90707 127.45777,122.18051 123.89529,122.18047 C 121.94996,122.18051 119.86403,122.39145 117.63748,122.81328 C 115.41091,123.23520 112.96169,123.89145 110.28983,124.78203 L 110.28983,118.45390 C 112.98513,117.70396 115.50466,117.14146 117.84842,116.76640 C 120.21559,116.39146 122.44215,116.20396 124.52811,116.20390 C 129.91870,116.20396 134.18433,117.43442 137.32498,119.89531 C 140.46557,122.33286 142.03588,125.63754 142.03592,129.80937 C 142.03588,132.71566 141.20385,135.17659 139.53983,137.19218 C 137.87573,139.18440 135.50854,140.56721 132.43826,141.34062 M 171.95389,121.82890 C 168.29762,121.82895 165.54372,123.63364 163.69217,127.24297 C 161.86403,130.82894 160.94997,136.23128 160.94998,143.45000 C 160.94997,150.64533 161.86403,156.04767 163.69217,159.65703 C 165.54372,163.24297 168.29762,165.03594 171.95389,165.03593 C 175.63355,165.03594 178.38745,163.24297 180.21561,159.65703 C 182.06714,156.04767 182.99292,150.64533 182.99295,143.45000 C 182.99292,136.23128 182.06714,130.82894 180.21561,127.24297 C 178.38745,123.63364 175.63355,121.82895 171.95389,121.82890 M 171.95389,116.20390 C 177.83667,116.20396 182.32495,118.53599 185.41873,123.20000 C 188.53588,127.84066 190.09447,134.59066 190.09451,143.45000 C 190.09447,152.28595 188.53588,159.03595 185.41873,163.70000 C 182.32495,168.34062 177.83667,170.66093 171.95389,170.66093 C 166.07106,170.66093 161.57106,168.34062 158.45389,163.70000 C 155.36013,159.03595 153.81326,152.28595 153.81326,143.45000 C 153.81326,134.59066 155.36013,127.84066 158.45389,123.20000 C 161.57106,118.53599 166.07106,116.20396 171.95389,116.20390"
     transform="scale(1.255735,1.453502)"
     style="font-size:72.000000px;font-style:normal;font-variant:normal;font-weight:normal;font-stretch:normal;writing-mode:lr-tb;text-anchor:start;fill:#000000;fill-opacity:1.0000000;stroke:none;stroke-width:1.0000000pt;stroke-linecap:butt;stroke-linejoin:miter;stroke-opacity:1.0000000;font-family:Bitstream Vera Sans"
     id="text2897" />
  <g
     id="g2806">
    <path
       d="M 46.352165,145.54748 C 69.810441,145.54748 69.810441,124.65767 93.268724,124.65767 C 116.72698,124.65767 116.72698,145.54748 140.18525,145.54748 C 163.64355,145.54748 163.64355,124.65767 187.10180,124.65767 C 210.56007,124.65767 210.56007,145.54748 234.01836,145.54748 C 257.47663,145.54748 257.47663,124.65767 280.93489,124.65767 C 304.39316,124.65767 304.39316,145.54748 327.85144,145.54748"
       style="fill:none;fill-opacity:1.0000000;fill-rule:evenodd;stroke:#000000;stroke-width:12.500000;stroke-linecap:butt;stroke-linejoin:miter;stroke-miterlimit:4.0000000;stroke-opacity:1.0000000"
       id="path629" />
    <path
       d="M 37.456350,106.87084 L 71.853509,278.85663 L 302.16847,278.85663 L 337.60154,106.87084"
       style="fill:none;fill-opacity:1.0000000;fill-rule:evenodd;stroke:#000000;stroke-width:12.500000;stroke-linecap:round;stroke-linejoin:round;stroke-miterlimit:4.0000000;stroke-dashoffset:0.0000000;stroke-opacity:1.0000000"
       id="path630" />
  </g>
  <path
     d="M 76.905082,304.30655 L 297.72363,304.30655"
     style="fill:none;fill-opacity:0.75000000;fill-rule:evenodd;stroke:#000000;stroke-width:12.715483;stroke-linecap:round;stroke-linejoin:miter;stroke-miterlimit:4.0000000;stroke-opacity:1.0000000"
     id="path1556" />
</svg>
